waves/alu_tb.vcd
$date
	Wed Apr 22 11:20:21 2026
$end
$version
	Icarus Verilog
$end
$timescale
	1ps
$end
$scope module ALU_tb $end
$var wire 1 ! zero $end
$var wire 16 " result [15:0] $end
$var reg 16 # a [15:0] $end
$var reg 3 $ alu_control [2:0] $end
$var reg 16 % b [15:0] $end
$var integer 32 & fail_count [31:0] $end
$var integer 32 ' test_id [31:0] $end
$scope module uut $end
$var wire 16 ( a [15:0] $end
$var wire 3 ) alu_control [2:0] $end
$var wire 16 * b [15:0] $end
$var wire 1 ! zero $end
$var reg 16 + result [15:0] $end
$upscope $end
$scope task check_result $end
$var reg 16 , expected [15:0] $end
$var reg 16 - got [15:0] $end
$var reg 64 . id [63:0] $end
$upscope $end
$scope task check_zero $end
$var reg 1 / expected $end
$var reg 1 0 got $end
$var reg 64 1 id [63:0] $end
$upscope $end
$upscope $end
$enddefinitions $end
$comment Show the parameter values. $end
$dumpall
$end
#0
$dumpvars
bx 1
x0
x/
bx .
bx -
bx ,
b1111 +
b101 *
b0 )
b1010 (
b1 '
b0 &
b101 %
b0 $
b1010 #
b1111 "
0!
$end
#10000
1!
b0 "
b0 +
b1 %
b1 *
b1111111111111111 #
b1111111111111111 (
b10 '
b1 1
0/
00
b1 .
b1111 ,
b1111 -
#20000
b0 %
b0 *
b0 #
b0 (
b11 '
b10 1
1/
10
b10 .
b0 ,
b0 -
#30000
0!
b101 "
b101 +
b1 $
b1 )
b101 %
b101 *
b1010 #
b1010 (
b100 '
b11 1
b11 .
#40000
1!
b0 "
b0 +
b111 %
b111 *
b111 #
b111 (
b101 '
b100 1
0/
00
b100 .
b101 ,
b101 -
#50000
0!
b1111111111111011 "
b1111111111111011 +
b1010 %
b1010 *
b101 #
b101 (
b110 '
b101 1
1/
10
b101 .
b0 ,
b0 -
#60000
b1111111111111111 "
b1111111111111111 +
b10 $
b10 )
b0 #
b0 (
b111 '
b110 1
0/
00
b110 .
b1111111111111011 ,
b1111111111111011 -
#70000
1!
b0 "
b0 +
b1111111111111111 #
b1111111111111111 (
b1000 '
b111 .
b1111111111111111 ,
b1111111111111111 -
#80000
0!
b101101001011010 "
b101101001011010 +
b1010010110100101 #
b1010010110100101 (
b1001 '
b1000 .
b0 ,
b0 -
#90000
b10000 "
b10000 +
b11 $
b11 )
b100 %
b100 *
b1 #
b1 (
b1010 '
b1001 .
b101101001011010 ,
b101101001011010 -
#100000
b1100 "
b1100 +
b10 %
b10 *
b11 #
b11 (
b1011 '
b1010 1
b1010 .
b10000 ,
b10000 -
#110000
b1111111100000000 "
b1111111100000000 +
b1000 %
b1000 *
b1111111111111111 #
b1111111111111111 (
b1100 '
b1011 1
b1011 .
b1100 ,
b1100 -
#120000
b1000 "
b1000 +
b100 $
b100 )
b100 %
b100 *
b10000000 #
b10000000 (
b1101 '
b1100 1
b1100 .
b1111111100000000 ,
b1111111100000000 -
#130000
b11111111 "
b11111111 +
b1000 %
b1000 *
b1111111111111111 #
b1111111111111111 (
b1110 '
b1101 1
b1101 .
b1000 ,
b1000 -
#140000
1!
b0 "
b0 +
b1 %
b1 *
b1 #
b1 (
b1111 '
b1110 1
b1110 .
b11111111 ,
b11111111 -
#150000
0!
b111100001111 "
b111100001111 +
b101 $
b101 )
b111100001111 %
b111100001111 *
b1111111111111111 #
b1111111111111111 (
b10000 '
b1111 1
1/
10
b1111 .
b0 ,
b0 -
#160000
1!
b0 "
b0 +
b101010101010101 %
b101010101010101 *
b1010101010101010 #
b1010101010101010 (
b10001 '
b10000 1
0/
00
b10000 .
b111100001111 ,
b111100001111 -
#170000
b1110111111111111 %
b1110111111111111 *
b0 #
b0 (
b10010 '
b10001 1
1/
10
b10001 .
b0 ,
b0 -
#180000
0!
b1111111111111111 "
b1111111111111111 +
b110 $
b110 )
b1111000011110000 %
b1111000011110000 *
b111100001111 #
b111100001111 (
b10011 '
b10010 1
b10010 .
#190000
b101010101010101 %
b101010101010101 *
b1010101010101010 #
b1010101010101010 (
b10100 '
b10011 1
0/
00
b10011 .
b1111111111111111 ,
b1111111111111111 -
#200000
b1011111011101111 %
b1011111011101111 *
b101010101010101 #
b101010101010101 (
b10101 '
b10100 1
b10100 .
#210000
b1 "
b1 +
b111 $
b111 )
b1010 %
b1010 *
b101 #
b101 (
b10110 '
b10101 1
b10101 .
#220000
1!
b0 "
b0 +
b1010 #
b1010 (
b10111 '
b10110 1
b10110 .
b1 ,
b1 -
#230000
b1101 %
b1101 *
b1111 #
b1111 (
b11000 '
b10111 1
1/
10
b10111 .
b0 ,
b0 -
#240000
b1 $
b1 )
b1111 %
b1111 *
b11001 '
b11000 1
b11000 .
#250000
0!
b1 "
b1 +
b0 $
b0 )
b0 %
b0 *
b1 #
b1 (
b11010 '
b11001 1
#260000
1!
b0 "
b0 +
b10 $
b10 )
b1111111111111111 #
b1111111111111111 (
b11011 '
b11010 1
0/
00
#270000
b11100 '
b11011 1
1/
10
