waves/star.vcd
$date
	Wed Apr 22 11:20:21 2026
$end
$version
	Icarus Verilog
$end
$timescale
	1ps
$end
$scope module StarCore1_tb $end
$var reg 1 ! clk $end
$var integer 32 " fail_count [31:0] $end
$var integer 32 # test_id [31:0] $end
$scope module uut $end
$var wire 1 ! clk $end
$var wire 1 $ reg_write $end
$var wire 1 % reg_dst $end
$var wire 4 & opcode [3:0] $end
$var wire 1 ' mem_write $end
$var wire 1 ( mem_to_reg $end
$var wire 1 ) mem_read $end
$var wire 1 * jump $end
$var wire 1 + bne $end
$var wire 1 , beq $end
$var wire 1 - alu_src $end
$var wire 2 . alu_op [1:0] $end
$scope module CU $end
$var wire 4 / opcode [3:0] $end
$var reg 2 0 alu_op [1:0] $end
$var reg 1 - alu_src $end
$var reg 1 , beq $end
$var reg 1 + bne $end
$var reg 1 * jump $end
$var reg 1 ) mem_read $end
$var reg 1 ( mem_to_reg $end
$var reg 1 ' mem_write $end
$var reg 1 % reg_dst $end
$var reg 1 $ reg_write $end
$upscope $end
$scope module DU $end
$var wire 2 1 alu_op [1:0] $end
$var wire 1 - alu_src $end
$var wire 1 , beq $end
$var wire 1 2 beq_taken $end
$var wire 1 + bne $end
$var wire 1 3 bne_taken $end
$var wire 1 ! clk $end
$var wire 1 * jump $end
$var wire 1 ) mem_read $end
$var wire 1 ( mem_to_reg $end
$var wire 1 ' mem_write $end
$var wire 1 % reg_dst $end
$var wire 1 $ reg_write $end
$var wire 1 4 zero_flag $end
$var wire 3 5 reg_write_dest [2:0] $end
$var wire 16 6 reg_write_data [15:0] $end
$var wire 16 7 reg_read_data_2 [15:0] $end
$var wire 16 8 reg_read_data_1 [15:0] $end
$var wire 3 9 reg_read_addr_2 [2:0] $end
$var wire 3 : reg_read_addr_1 [2:0] $end
$var wire 16 ; pc_next [15:0] $end
$var wire 16 < pc_jump [15:0] $end
$var wire 16 = pc_branch [15:0] $end
$var wire 16 > pc_after_branch [15:0] $end
$var wire 16 ? pc2 [15:0] $end
$var wire 4 @ opcode [3:0] $end
$var wire 16 A mem_read_data [15:0] $end
$var wire 13 B jump_target [12:0] $end
$var wire 16 C instr [15:0] $end
$var wire 16 D ext_im [15:0] $end
$var wire 16 E alu_result [15:0] $end
$var wire 16 F alu_operand_b [15:0] $end
$var wire 3 G alu_control [2:0] $end
$var reg 16 H pc_current [15:0] $end
$scope module alu_ctrl $end
$var wire 2 I ALUOp [1:0] $end
$var wire 4 J Opcode [3:0] $end
$var wire 6 K control_in [5:0] $end
$var reg 3 L ALU_Cnt [2:0] $end
$upscope $end
$scope module alu_unit $end
$var wire 3 M alu_control [2:0] $end
$var wire 16 N b [15:0] $end
$var wire 1 4 zero $end
$var wire 16 O a [15:0] $end
$var reg 16 P result [15:0] $end
$upscope $end
$scope module dm $end
$var wire 1 ! clk $end
$var wire 16 Q mem_access_addr [15:0] $end
$var wire 1 ) mem_read $end
$var wire 1 ' mem_write_en $end
$var wire 3 R ram_addr [2:0] $end
$var wire 16 S mem_write_data [15:0] $end
$var wire 16 T mem_read_data [15:0] $end
$var integer 32 U log_fd [31:0] $end
$upscope $end
$scope module im $end
$var wire 16 V instruction [15:0] $end
$var wire 16 W pc [15:0] $end
$var wire 4 X rom_addr [3:0] $end
$upscope $end
$scope module reg_file $end
$var wire 1 ! clk $end
$var wire 3 Y reg_read_addr_1 [2:0] $end
$var wire 3 Z reg_read_addr_2 [2:0] $end
$var wire 16 [ reg_read_data_1 [15:0] $end
$var wire 16 \ reg_read_data_2 [15:0] $end
$var wire 16 ] reg_write_data [15:0] $end
$var wire 3 ^ reg_write_dest [2:0] $end
$var wire 1 $ reg_write_en $end
$var integer 32 _ i [31:0] $end
$upscope $end
$upscope $end
$upscope $end
$scope task check16 $end
$var reg 16 ` expected [15:0] $end
$var reg 16 a got [15:0] $end
$var reg 64 b id [63:0] $end
$upscope $end
$upscope $end
$enddefinitions $end
$comment Show the parameter values. $end
$dumpall
$end
#0
$dumpvars
bx b
bx a
bx `
b1000 _
b1 ^
b1 ]
b0 \
b0 [
b1 Z
b0 Y
b0 X
b0 W
b1000000 V
b0 U
b1 T
b0 S
b0 R
b0 Q
b0 P
b0 O
b0 N
b0 M
b0 L
b100000 K
b0 J
b10 I
b0 H
b0 G
b0 F
b0 E
b0 D
b1000000 C
b10000000 B
b1 A
b0 @
b10 ?
b10 >
b10 =
b10000000 <
b10 ;
b0 :
b1 9
b0 8
b0 7
b1 6
b1 5
14
03
02
b10 1
b10 0
b0 /
b10 .
1-
0,
0+
0*
1)
1(
0'
b0 &
0%
1$
b1 #
b0 "
0!
$end
#5000
b10 6
b10 ]
b10 A
b10 T
b1 R
04
b1 E
b1 P
b1 Q
b100000010 <
b1 F
b1 N
b100000010 B
b1 D
b10 5
b10 ^
b10 9
b10 Z
b100 ;
b10000001 C
b10000001 V
b100 >
b1 X
b0 7
b0 S
b0 \
b110 =
b100 ?
b10 H
b10 W
1!
#10000
0!
#15000
b11 R
b10100110000 <
b11 E
b11 P
b11 Q
b11 5
b11 ^
b0 A
b0 T
b11 6
b11 ]
b10 F
b10 N
b10100110000 B
b10 K
b11000 D
b1 8
b1 O
b1 [
1%
b0 .
b0 0
b0 1
b0 I
0)
1$
0(
0-
b10 J
b1 :
b1 Y
b10 &
b10 /
b10 @
b110 ;
b10001010011000 C
b10001010011000 V
b110 >
b10 X
b110110 =
b110 ?
b100 H
b100 W
b10 7
b10 S
b10 \
1!
#20000
0!
#25000
b10 R
b10 6
b10 ]
b110000100 <
b10 E
b10 P
b10 Q
b110000100 B
b100001 K
b10 D
b11 7
b11 S
b11 \
b0 8
b0 O
b0 [
b10 .
b10 0
b10 1
b10 I
1'
1-
0$
0%
b1 J
b11 9
b11 Z
b0 :
b0 Y
b1 &
b1 /
b1 @
b1000 ;
b1000011000010 C
b1000011000010 V
b1000 >
b11 X
b1100 =
b1000 ?
b110 H
b110 W
1!
#30000
0!
#35000
b111 R
b1111111111111111 6
b1111111111111111 ]
b10101000000 <
b1 G
b1 L
b1 M
b1111111111111111 E
b1111111111111111 P
b1111111111111111 Q
b10101000000 B
b11 K
b1111111111100000 D
b10 7
b10 S
b10 \
b1 8
b1 O
b1 [
b100 5
b100 ^
1$
1%
b0 .
b0 0
b0 1
b0 I
0'
0-
b11 J
b10 9
b10 Z
b1 :
b1 Y
b11 &
b11 /
b11 @
b1010 ;
b11001010100000 C
b11001010100000 V
b1010 >
b100 X
b1111111111001010 =
b1010 ?
b1000 H
b1000 W
1!
#40000
0!
#45000
b0 R
b0 6
b0 ]
14
b0 E
b0 P
b0 Q
b10101010000 <
b101 G
b101 L
b101 M
b10101010000 B
b111 K
b1111111111101000 D
b101 5
b101 ^
1$
1%
b111 J
b111 &
b111 /
b111 @
b1100 ;
b111001010101000 C
b111001010101000 V
b1100 >
b101 X
b1111111111011100 =
b1100 ?
b1010 H
b1010 W
1!
#50000
0!
#55000
b11 R
b11 6
b11 ]
04
b11 E
b11 P
b11 Q
b10101100000 <
b110 G
b110 L
b110 M
b10101100000 B
b1000 K
b1111111111110000 D
b110 5
b110 ^
1$
1%
b1000 J
b1000 &
b1000 /
b1000 @
b1110 ;
b1000001010110000 C
b1000001010110000 V
b1110 >
b110 X
b1111111111101110 =
b1110 ?
b1100 H
b1100 W
1!
#60000
0!
#65000
b1 R
b1 6
b1 ]
b1 E
b1 P
b1 Q
b10101110000 <
b111 G
b111 L
b111 M
b10101110000 B
b1001 K
b1111111111111000 D
b111 5
b111 ^
1$
1%
b1001 J
b1001 &
b1001 /
b1001 @
b10000 ;
b1001001010111000 C
b1001001010111000 V
b10000 >
b111 X
b0 =
b10000 ?
b1110 H
b1110 W
1!
#70000
0!
#75000
b111 R
b1111111111111111 6
b1111111111111111 ]
b1111111111111111 E
b1111111111111111 P
b1111111111111111 Q
b10100000010 <
b1 G
b1 L
b1 M
13
b10100000010 B
b11100 K
b1 D
b10 5
b10 ^
b1 .
b1 0
b1 1
b1 I
1+
0$
0%
b1100 J
b1100 &
b1100 /
b1100 @
b10100 ;
b1100001010000001 C
b1100001010000001 V
b10100 >
b1000 X
b10100 =
b10010 ?
b10000 H
b10000 W
1!
#80000
0!
#85000
bx R
bx 6
bx ]
b0xxxxxxxxxxxx0 <
b0 G
b0 L
b0 M
bx F
bx N
x4
bx E
bx P
bx Q
03
bx0 B
b0xxxx K
bx D
bx 7
bx S
bx \
bx 8
bx O
bx [
bx 5
bx ^
b0 .
b0 0
b0 1
b0 I
0+
bx J
bx 9
bx Z
bx :
bx Y
bx &
bx /
bx @
b10110 ;
bx C
bx V
b10110 >
b1010 X
bx =
b10110 ?
b10100 H
b10100 W
1!
#90000
0!
#95000
b11000 ;
b11000 >
b1011 X
b11000 ?
b10110 H
b10110 W
1!
#100000
0!
#105000
b11010 ;
b11010 >
b1100 X
b11010 ?
b11000 H
b11000 W
1!
#110000
0!
#115000
b11100 ;
b11100 >
b1101 X
b11100 ?
b11010 H
b11010 W
1!
#120000
0!
#125000
b11110 ;
b11110 >
b1110 X
b11110 ?
b11100 H
b11100 W
1!
#130000
0!
#135000
b100000 ;
b100000 >
b1111 X
b100000 ?
b11110 H
b11110 W
1!
#140000
0!
#145000
b100010 =
b0 R
b10000000 <
14
b0 E
b0 P
b0 Q
b1 A
b1 T
b1 6
b1 ]
b0 F
b0 N
b10000000 B
b100000 K
b0 D
b1 7
b1 S
b1 \
b0 8
b0 O
b0 [
b1 5
b1 ^
b10 .
b10 0
b10 1
b10 I
1)
1$
1(
1-
b0 J
b1 9
b1 Z
b0 :
b0 Y
b0 &
b0 /
b0 @
b100010 ;
b1000000 C
b1000000 V
b100010 >
b0 X
b100010 ?
b100000 H
b100000 W
1!
#150000
0!
#155000
b10 6
b10 ]
b10 A
b10 T
b1 R
04
b1 E
b1 P
b1 Q
b100000010 <
b1 F
b1 N
b100000010 B
b1 D
b10 7
b10 S
b10 \
b10 5
b10 ^
b10 9
b10 Z
b100100 ;
b10000001 C
b10000001 V
b100100 >
b1 X
b100110 =
b100100 ?
b100010 H
b100010 W
1!
#160000
0!
#165000
b11 R
b10100110000 <
b11 E
b11 P
b11 Q
b11 5
b11 ^
b0 A
b0 T
b11 6
b11 ]
b10 F
b10 N
b10100110000 B
b10 K
b11000 D
b1 8
b1 O
b1 [
1%
b0 .
b0 0
b0 1
b0 I
0)
1$
0(
0-
b10 J
b1 :
b1 Y
b10 &
b10 /
b10 @
b100110 ;
b10001010011000 C
b10001010011000 V
b100110 >
b10 X
b1010110 =
b100110 ?
b100100 H
b100100 W
1!
#170000
0!
#175000
b10 R
b10 6
b10 ]
b110000100 <
b10 E
b10 P
b10 Q
b110000100 B
b100001 K
b10 D
b11 7
b11 S
b11 \
b0 8
b0 O
b0 [
b10 .
b10 0
b10 1
b10 I
1'
1-
0$
0%
b1 J
b11 9
b11 Z
b0 :
b0 Y
b1 &
b1 /
b1 @
b101000 ;
b1000011000010 C
b1000011000010 V
b101000 >
b11 X
b101100 =
b101000 ?
b100110 H
b100110 W
1!
#180000
0!
#185000
b111 R
b1111111111111111 6
b1111111111111111 ]
b10101000000 <
b1 G
b1 L
b1 M
b1111111111111111 E
b1111111111111111 P
b1111111111111111 Q
b10101000000 B
b11 K
b1111111111100000 D
b10 7
b10 S
b10 \
b1 8
b1 O
b1 [
b100 5
b100 ^
1$
1%
b0 .
b0 0
b0 1
b0 I
0'
0-
b11 J
b10 9
b10 Z
b1 :
b1 Y
b11 &
b11 /
b11 @
b101010 ;
b11001010100000 C
b11001010100000 V
b101010 >
b100 X
b1111111111101010 =
b101010 ?
b101000 H
b101000 W
1!
#190000
0!
#195000
b0 R
b0 6
b0 ]
14
b0 E
b0 P
b0 Q
b10101010000 <
b101 G
b101 L
b101 M
b10101010000 B
b111 K
b1111111111101000 D
b101 5
b101 ^
1$
1%
b111 J
b111 &
b111 /
b111 @
b101100 ;
b111001010101000 C
b111001010101000 V
b101100 >
b101 X
b1111111111111100 =
b101100 ?
b101010 H
b101010 W
1!
#200000
0!
#205000
b11 R
b11 6
b11 ]
04
b11 E
b11 P
b11 Q
b10101100000 <
b110 G
b110 L
b110 M
b10101100000 B
b1000 K
b1111111111110000 D
b110 5
b110 ^
1$
1%
b1000 J
b1000 &
b1000 /
b1000 @
b101110 ;
b1000001010110000 C
b1000001010110000 V
b101110 >
b110 X
b1110 =
b101110 ?
b101100 H
b101100 W
1!
#210000
0!
#215000
b1 R
b1 6
b1 ]
b1 E
b1 P
b1 Q
b10101110000 <
b111 G
b111 L
b111 M
b10101110000 B
b1001 K
b1111111111111000 D
b111 5
b111 ^
1$
1%
b1001 J
b1001 &
b1001 /
b1001 @
b110000 ;
b1001001010111000 C
b1001001010111000 V
b110000 >
b111 X
b100000 =
b110000 ?
b101110 H
b101110 W
1!
#220000
0!
#225000
b111 R
b1111111111111111 6
b1111111111111111 ]
b1111111111111111 E
b1111111111111111 P
b1111111111111111 Q
b10100000010 <
b1 G
b1 L
b1 M
13
b10100000010 B
b11100 K
b1 D
b10 5
b10 ^
b1 .
b1 0
b1 1
b1 I
1+
0$
0%
b1100 J
b1100 &
b1100 /
b1100 @
b110100 ;
b1100001010000001 C
b1100001010000001 V
b110100 >
b1000 X
b110100 =
b110010 ?
b110000 H
b110000 W
1!
#230000
0!
#235000
bx R
bx 6
bx ]
b0xxxxxxxxxxxx0 <
b0 G
b0 L
b0 M
bx F
bx N
x4
bx E
bx P
bx Q
03
bx0 B
b0xxxx K
bx D
bx 7
bx S
bx \
bx 8
bx O
bx [
bx 5
bx ^
b0 .
b0 0
b0 1
b0 I
0+
bx J
bx 9
bx Z
bx :
bx Y
bx &
bx /
bx @
b110110 ;
bx C
bx V
b110110 >
b1010 X
bx =
b110110 ?
b110100 H
b110100 W
1!
#240000
0!
#245000
b111000 ;
b111000 >
b1011 X
b111000 ?
b110110 H
b110110 W
1!
#250000
0!
#255000
b111010 ;
b111010 >
b1100 X
b111010 ?
b111000 H
b111000 W
1!
#260000
0!
#265000
b111100 ;
b111100 >
b1101 X
b111100 ?
b111010 H
b111010 W
1!
#270000
0!
#275000
b111110 ;
b111110 >
b1110 X
b111110 ?
b111100 H
b111100 W
1!
#280000
0!
#285000
b1000000 ;
b1000000 >
b1111 X
b1000000 ?
b111110 H
b111110 W
1!
#290000
0!
#295000
b1000010 =
b0 R
b10000000 <
14
b0 E
b0 P
b0 Q
b1 A
b1 T
b1 6
b1 ]
b0 F
b0 N
b10000000 B
b100000 K
b0 D
b1 7
b1 S
b1 \
b0 8
b0 O
b0 [
b1 5
b1 ^
b10 .
b10 0
b10 1
b10 I
1)
1$
1(
1-
b0 J
b1 9
b1 Z
b0 :
b0 Y
b0 &
b0 /
b0 @
b1000010 ;
b1000000 C
b1000000 V
b1000010 >
b0 X
b1000010 ?
b1000000 H
b1000000 W
1!
#300000
0!
#305000
b10 6
b10 ]
b10 A
b10 T
b1 R
04
b1 E
b1 P
b1 Q
b100000010 <
b1 F
b1 N
b100000010 B
b1 D
b10 7
b10 S
b10 \
b10 5
b10 ^
b10 9
b10 Z
b1000100 ;
b10000001 C
b10000001 V
b1000100 >
b1 X
b1000110 =
b1000100 ?
b1000010 H
b1000010 W
1!
#310000
0!
#315000
b11 R
b10100110000 <
b11 E
b11 P
b11 Q
b11 5
b11 ^
b0 A
b0 T
b11 6
b11 ]
b10 F
b10 N
b10100110000 B
b10 K
b11000 D
b1 8
b1 O
b1 [
1%
b0 .
b0 0
b0 1
b0 I
0)
1$
0(
0-
b10 J
b1 :
b1 Y
b10 &
b10 /
b10 @
b1000110 ;
b10001010011000 C
b10001010011000 V
b1000110 >
b10 X
b1110110 =
b1000110 ?
b1000100 H
b1000100 W
1!
#320000
0!
#325000
b10 R
b10 6
b10 ]
b110000100 <
b10 E
b10 P
b10 Q
b110000100 B
b100001 K
b10 D
b11 7
b11 S
b11 \
b0 8
b0 O
b0 [
b10 .
b10 0
b10 1
b10 I
1'
1-
0$
0%
b1 J
b11 9
b11 Z
b0 :
b0 Y
b1 &
b1 /
b1 @
b1001000 ;
b1000011000010 C
b1000011000010 V
b1001000 >
b11 X
b1001100 =
b1001000 ?
b1000110 H
b1000110 W
1!
#330000
0!
#335000
b111 R
b1111111111111111 6
b1111111111111111 ]
b10101000000 <
b1 G
b1 L
b1 M
b1111111111111111 E
b1111111111111111 P
b1111111111111111 Q
b10101000000 B
b11 K
b1111111111100000 D
b10 7
b10 S
b10 \
b1 8
b1 O
b1 [
b100 5
b100 ^
1$
1%
b0 .
b0 0
b0 1
b0 I
0'
0-
b11 J
b10 9
b10 Z
b1 :
b1 Y
b11 &
b11 /
b11 @
b1001010 ;
b11001010100000 C
b11001010100000 V
b1001010 >
b100 X
b1010 =
b1001010 ?
b1001000 H
b1001000 W
1!
#340000
0!
#345000
b0 R
b0 6
b0 ]
14
b0 E
b0 P
b0 Q
b10101010000 <
b101 G
b101 L
b101 M
b10101010000 B
b111 K
b1111111111101000 D
b101 5
b101 ^
1$
1%
b111 J
b111 &
b111 /
b111 @
b1001100 ;
b111001010101000 C
b111001010101000 V
b1001100 >
b101 X
b11100 =
b1001100 ?
b1001010 H
b1001010 W
1!
#350000
0!
#355000
b11 R
b11 6
b11 ]
04
b11 E
b11 P
b11 Q
b10101100000 <
b110 G
b110 L
b110 M
b10101100000 B
b1000 K
b1111111111110000 D
b110 5
b110 ^
1$
1%
b1000 J
b1000 &
b1000 /
b1000 @
b1001110 ;
b1000001010110000 C
b1000001010110000 V
b1001110 >
b110 X
b101110 =
b1001110 ?
b1001100 H
b1001100 W
1!
#360000
0!
#365000
b1 R
b1 6
b1 ]
b1 E
b1 P
b1 Q
b10101110000 <
b111 G
b111 L
b111 M
b10101110000 B
b1001 K
b1111111111111000 D
b111 5
b111 ^
1$
1%
b1001 J
b1001 &
b1001 /
b1001 @
b1010000 ;
b1001001010111000 C
b1001001010111000 V
b1010000 >
b111 X
b1000000 =
b1010000 ?
b1001110 H
b1001110 W
1!
#370000
0!
#375000
b111 R
b1111111111111111 6
b1111111111111111 ]
b1111111111111111 E
b1111111111111111 P
b1111111111111111 Q
b10100000010 <
b1 G
b1 L
b1 M
13
b10100000010 B
b11100 K
b1 D
b10 5
b10 ^
b1 .
b1 0
b1 1
b1 I
1+
0$
0%
b1100 J
b1100 &
b1100 /
b1100 @
b1010100 ;
b1100001010000001 C
b1100001010000001 V
b1010100 >
b1000 X
b1010100 =
b1010010 ?
b1010000 H
b1010000 W
1!
#380000
0!
#385000
bx R
bx 6
bx ]
b0xxxxxxxxxxxx0 <
b0 G
b0 L
b0 M
bx F
bx N
x4
bx E
bx P
bx Q
03
bx0 B
b0xxxx K
bx D
bx 7
bx S
bx \
bx 8
bx O
bx [
bx 5
bx ^
b0 .
b0 0
b0 1
b0 I
0+
bx J
bx 9
bx Z
bx :
bx Y
bx &
bx /
bx @
b1010110 ;
bx C
bx V
b1010110 >
b1010 X
bx =
b1010110 ?
b1010100 H
b1010100 W
1!
#390000
0!
#395000
b1011000 ;
b1011000 >
b1011 X
b1011000 ?
b1010110 H
b1010110 W
1!
#400000
0!
#405000
b1011010 ;
b1011010 >
b1100 X
b1011010 ?
b1011000 H
b1011000 W
1!
#410000
0!
#415000
b1011100 ;
b1011100 >
b1101 X
b1011100 ?
b1011010 H
b1011010 W
1!
#420000
0!
#425000
b1011110 ;
b1011110 >
b1110 X
b1011110 ?
b1011100 H
b1011100 W
1!
#430000
0!
#435000
b1100000 ;
b1100000 >
b1111 X
b1100000 ?
b1011110 H
b1011110 W
1!
#440000
0!
#445000
b1100010 =
b0 R
b10000000 <
14
b0 E
b0 P
b0 Q
b1 A
b1 T
b1 6
b1 ]
b0 F
b0 N
b10000000 B
b100000 K
b0 D
b1 7
b1 S
b1 \
b0 8
b0 O
b0 [
b1 5
b1 ^
b10 .
b10 0
b10 1
b10 I
1)
1$
1(
1-
b0 J
b1 9
b1 Z
b0 :
b0 Y
b0 &
b0 /
b0 @
b1100010 ;
b1000000 C
b1000000 V
b1100010 >
b0 X
b1100010 ?
b1100000 H
b1100000 W
1!
#450000
0!
#455000
b10 6
b10 ]
b10 A
b10 T
b1 R
04
b1 E
b1 P
b1 Q
b100000010 <
b1 F
b1 N
b100000010 B
b1 D
b10 7
b10 S
b10 \
b10 5
b10 ^
b10 9
b10 Z
b1100100 ;
b10000001 C
b10000001 V
b1100100 >
b1 X
b1100110 =
b1100100 ?
b1100010 H
b1100010 W
1!
#460000
0!
#465000
b11 R
b10100110000 <
b11 E
b11 P
b11 Q
b11 5
b11 ^
b0 A
b0 T
b11 6
b11 ]
b10 F
b10 N
b10100110000 B
b10 K
b11000 D
b1 8
b1 O
b1 [
1%
b0 .
b0 0
b0 1
b0 I
0)
1$
0(
0-
b10 J
b1 :
b1 Y
b10 &
b10 /
b10 @
b1100110 ;
b10001010011000 C
b10001010011000 V
b1100110 >
b10 X
b10010110 =
b1100110 ?
b1100100 H
b1100100 W
1!
#470000
0!
#475000
b10 R
b10 6
b10 ]
b110000100 <
b10 E
b10 P
b10 Q
b110000100 B
b100001 K
b10 D
b11 7
b11 S
b11 \
b0 8
b0 O
b0 [
b10 .
b10 0
b10 1
b10 I
1'
1-
0$
0%
b1 J
b11 9
b11 Z
b0 :
b0 Y
b1 &
b1 /
b1 @
b1101000 ;
b1000011000010 C
b1000011000010 V
b1101000 >
b11 X
b1101100 =
b1101000 ?
b1100110 H
b1100110 W
1!
#480000
0!
#485000
b111 R
b1111111111111111 6
b1111111111111111 ]
b10101000000 <
b1 G
b1 L
b1 M
b1111111111111111 E
b1111111111111111 P
b1111111111111111 Q
b10101000000 B
b11 K
b1111111111100000 D
b10 7
b10 S
b10 \
b1 8
b1 O
b1 [
b100 5
b100 ^
1$
1%
b0 .
b0 0
b0 1
b0 I
0'
0-
b11 J
b10 9
b10 Z
b1 :
b1 Y
b11 &
b11 /
b11 @
b1101010 ;
b11001010100000 C
b11001010100000 V
b1101010 >
b100 X
b101010 =
b1101010 ?
b1101000 H
b1101000 W
1!
#490000
0!
#495000
b0 R
b0 6
b0 ]
14
b0 E
b0 P
b0 Q
b10101010000 <
b101 G
b101 L
b101 M
b10101010000 B
b111 K
b1111111111101000 D
b101 5
b101 ^
1$
1%
b111 J
b111 &
b111 /
b111 @
b1101100 ;
b111001010101000 C
b111001010101000 V
b1101100 >
b101 X
b111100 =
b1101100 ?
b1101010 H
b1101010 W
1!
#500000
0!
#505000
b11 R
b11 6
b11 ]
04
b11 E
b11 P
b11 Q
b10101100000 <
b110 G
b110 L
b110 M
b10101100000 B
b1000 K
b1111111111110000 D
b110 5
b110 ^
1$
1%
b1000 J
b1000 &
b1000 /
b1000 @
b1101110 ;
b1000001010110000 C
b1000001010110000 V
b1101110 >
b110 X
b1001110 =
b1101110 ?
b1101100 H
b1101100 W
1!
#510000
0!
#515000
b1 R
b1 6
b1 ]
b1 E
b1 P
b1 Q
b10101110000 <
b111 G
b111 L
b111 M
b10101110000 B
b1001 K
b1111111111111000 D
b111 5
b111 ^
1$
1%
b1001 J
b1001 &
b1001 /
b1001 @
b1110000 ;
b1001001010111000 C
b1001001010111000 V
b1110000 >
b111 X
b1100000 =
b1110000 ?
b1101110 H
b1101110 W
1!
#520000
0!
#525000
b111 R
b1111111111111111 6
b1111111111111111 ]
b1111111111111111 E
b1111111111111111 P
b1111111111111111 Q
b10100000010 <
b1 G
b1 L
b1 M
13
b10100000010 B
b11100 K
b1 D
b10 5
b10 ^
b1 .
b1 0
b1 1
b1 I
1+
0$
0%
b1100 J
b1100 &
b1100 /
b1100 @
b1110100 ;
b1100001010000001 C
b1100001010000001 V
b1110100 >
b1000 X
b1110100 =
b1110010 ?
b1110000 H
b1110000 W
1!
#530000
0!
#535000
bx R
bx 6
bx ]
b0xxxxxxxxxxxx0 <
b0 G
b0 L
b0 M
bx F
bx N
x4
bx E
bx P
bx Q
03
bx0 B
b0xxxx K
bx D
bx 7
bx S
bx \
bx 8
bx O
bx [
bx 5
bx ^
b0 .
b0 0
b0 1
b0 I
0+
bx J
bx 9
bx Z
bx :
bx Y
bx &
bx /
bx @
b1110110 ;
bx C
bx V
b1110110 >
b1010 X
bx =
b1110110 ?
b1110100 H
b1110100 W
1!
#540000
0!
#545000
b1111000 ;
b1111000 >
b1011 X
b1111000 ?
b1110110 H
b1110110 W
1!
#550000
0!
#555000
b1111010 ;
b1111010 >
b1100 X
b1111010 ?
b1111000 H
b1111000 W
1!
#560000
0!
#565000
b1111100 ;
b1111100 >
b1101 X
b1111100 ?
b1111010 H
b1111010 W
1!
#570000
0!
#575000
b1111110 ;
b1111110 >
b1110 X
b1111110 ?
b1111100 H
b1111100 W
1!
#580000
0!
#585000
b10000000 ;
b10000000 >
b1111 X
b10000000 ?
b1111110 H
b1111110 W
1!
#590000
0!
#595000
b10000010 =
b0 R
b10000000 <
14
b0 E
b0 P
b0 Q
b1 A
b1 T
b1 6
b1 ]
b0 F
b0 N
b10000000 B
b100000 K
b0 D
b1 7
b1 S
b1 \
b0 8
b0 O
b0 [
b1 5
b1 ^
b10 .
b10 0
b10 1
b10 I
1)
1$
1(
1-
b0 J
b1 9
b1 Z
b0 :
b0 Y
b0 &
b0 /
b0 @
b10000010 ;
b1000000 C
b1000000 V
b10000010 >
b0 X
b10000010 ?
b10000000 H
b10000000 W
1!
#600000
0!
#605000
b10 6
b10 ]
b10 A
b10 T
b1 R
04
b1 E
b1 P
b1 Q
b100000010 <
b1 F
b1 N
b100000010 B
b1 D
b10 7
b10 S
b10 \
b10 5
b10 ^
b10 9
b10 Z
b10000100 ;
b10000001 C
b10000001 V
b10000100 >
b1 X
b10000110 =
b10000100 ?
b10000010 H
b10000010 W
1!
#610000
0!
#615000
b11 R
b10100110000 <
b11 E
b11 P
b11 Q
b11 5
b11 ^
b0 A
b0 T
b11 6
b11 ]
b10 F
b10 N
b10100110000 B
b10 K
b11000 D
b1 8
b1 O
b1 [
1%
b0 .
b0 0
b0 1
b0 I
0)
1$
0(
0-
b10 J
b1 :
b1 Y
b10 &
b10 /
b10 @
b10000110 ;
b10001010011000 C
b10001010011000 V
b10000110 >
b10 X
b10110110 =
b10000110 ?
b10000100 H
b10000100 W
1!
#620000
0!
#625000
b10 R
b10 6
b10 ]
b110000100 <
b10 E
b10 P
b10 Q
b110000100 B
b100001 K
b10 D
b11 7
b11 S
b11 \
b0 8
b0 O
b0 [
b10 .
b10 0
b10 1
b10 I
1'
1-
0$
0%
b1 J
b11 9
b11 Z
b0 :
b0 Y
b1 &
b1 /
b1 @
b10001000 ;
b1000011000010 C
b1000011000010 V
b10001000 >
b11 X
b10001100 =
b10001000 ?
b10000110 H
b10000110 W
1!
#630000
0!
#635000
b111 R
b1111111111111111 6
b1111111111111111 ]
b10101000000 <
b1 G
b1 L
b1 M
b1111111111111111 E
b1111111111111111 P
b1111111111111111 Q
b10101000000 B
b11 K
b1111111111100000 D
b10 7
b10 S
b10 \
b1 8
b1 O
b1 [
b100 5
b100 ^
1$
1%
b0 .
b0 0
b0 1
b0 I
0'
0-
b11 J
b10 9
b10 Z
b1 :
b1 Y
b11 &
b11 /
b11 @
b10001010 ;
b11001010100000 C
b11001010100000 V
b10001010 >
b100 X
b1001010 =
b10001010 ?
b10001000 H
b10001000 W
1!
#640000
0!
b1100 #
b1011 b
b1 `
b1 a
